<svg id="_360-white" data-name="360-white" xmlns="http://www.w3.org/2000/svg" width="32.746" height="27.629" viewBox="0 0 32.746 27.629">
  <path id="Path_167" data-name="Path 167" d="M69.116,106.233H65.023a1.023,1.023,0,0,1,0-2.047h3.07v-6.14h-3.07a1.023,1.023,0,0,1,0-2.047h4.093a1.026,1.026,0,0,1,1.023,1.023v8.186A1.026,1.026,0,0,1,69.116,106.233Z" transform="translate(-59.907 -89.86)" fill="#fff"/>
  <path id="Path_168" data-name="Path 168" d="M196.093,106.233h-2.047A2.044,2.044,0,0,1,192,104.186v-6.14A2.044,2.044,0,0,1,194.047,96h3.07a1.023,1.023,0,0,1,0,2.047h-3.07v2.047h2.047a2.044,2.044,0,0,1,2.047,2.047v2.047A2.044,2.044,0,0,1,196.093,106.233Zm-2.047-4.093v2.047h2.047V102.14Z" transform="translate(-179.72 -89.86)" fill="#fff"/>
  <path id="Path_169" data-name="Path 169" d="M324.093,106.233h-2.047A2.044,2.044,0,0,1,320,104.186v-6.14A2.044,2.044,0,0,1,322.047,96h2.047a2.044,2.044,0,0,1,2.047,2.047v6.14A2.044,2.044,0,0,1,324.093,106.233Zm-2.047-8.186v6.14h2.047v-6.14Z" transform="translate(-299.534 -89.86)" fill="#fff"/>
  <path id="Path_170" data-name="Path 170" d="M69.116,162.047H65.023a1.023,1.023,0,0,1,0-2.047h4.093a1.023,1.023,0,1,1,0,2.047Z" transform="translate(-59.907 -149.767)" fill="#fff"/>
  <path id="Path_171" data-name="Path 171" d="M16.373,197.38C7.189,197.38,0,193.786,0,189.194a5.573,5.573,0,0,1,2.437-4.349,1.025,1.025,0,1,1,1.26,1.618h0a3.72,3.72,0,0,0-1.65,2.731c0,2.9,5.884,6.14,14.326,6.14a1.023,1.023,0,1,1,0,2.047Z" transform="translate(0 -172.821)" fill="#fff"/>
  <path id="Path_172" data-name="Path 172" d="M288.251,197.146a1.025,1.025,0,1,1-.1-2.047c6.472-.62,11.352-3.2,11.352-6a3.732,3.732,0,0,0-1.656-2.737,1.025,1.025,0,1,1,1.26-1.618h0a5.556,5.556,0,0,1,2.437,4.349c0,3.978-5.43,7.291-13.207,8.039Z" transform="translate(-268.808 -172.728)" fill="#fff"/>
  <path id="Path_173" data-name="Path 173" d="M193,311.976a1.022,1.022,0,0,1-1.023-1.023,1.042,1.042,0,0,1,.3-.729l2.347-2.347-2.347-2.347a1.027,1.027,0,0,1,1.452-1.452l3.07,3.07a1.015,1.015,0,0,1,0,1.445h0l-3.07,3.07A1.013,1.013,0,0,1,193,311.976Z" transform="translate(-179.697 -284.347)" fill="#fff"/>
  <path id="Path_174" data-name="Path 174" d="M419.07,6.14a3.07,3.07,0,1,1,3.07-3.07A3.071,3.071,0,0,1,419.07,6.14Zm0-4.093a1.023,1.023,0,1,0,1.023,1.023A1.026,1.026,0,0,0,419.07,2.047Z" transform="translate(-389.394 0)" fill="#fff"/>
</svg>
