<svg xmlns="http://www.w3.org/2000/svg" viewBox="0 0 4.063 8.247">
  <defs>
    <style>
      .cls-1 {
        fill: none;
        stroke: #fff;
        stroke-linecap: round;
        stroke-linejoin: round;
        stroke-miterlimit: 10;
      }
    </style>
  </defs>
  <g id="Group_678" data-name="Group 678" transform="translate(431 -1191.269) rotate(90)">
    <line id="XMLID_21_" class="cls-1" x1="3.422" y2="2.661" transform="translate(1195.393 430.299) rotate(180)"/>
    <line id="XMLID_20_" class="cls-1" x2="3.422" y2="2.661" transform="translate(1198.815 430.299) rotate(180)"/>
  </g>
</svg>
