<svg xmlns="http://www.w3.org/2000/svg" viewBox="0 0 10.573 4.563">
  <defs>
    <style>
      .cls-1 {
        fill: none;
        stroke: #3a3028;
        stroke-linecap: round;
        stroke-linejoin: round;
        stroke-miterlimit: 10;
      }
    </style>
  </defs>
  <g id="Group_301" data-name="Group 301" transform="translate(1201.849 431.505) rotate(180)">
    <line id="XMLID_21_" class="cls-1" x1="4.591" y2="3.171" transform="translate(1196.562 430.81) rotate(180)"/>
    <line id="XMLID_20_" class="cls-1" x2="4.591" y2="3.171" transform="translate(1201.153 430.81) rotate(180)"/>
  </g>
</svg>
