<?xml version="1.0" encoding="utf-8"?>
<!-- Generator: Adobe Illustrator 19.0.0, SVG Export Plug-In . SVG Version: 6.00 Build 0)  -->
<svg version="1.1" id="Layer_1" xmlns="http://www.w3.org/2000/svg" xmlns:xlink="http://www.w3.org/1999/xlink" x="0px" y="0px"
	 viewBox="-296 391.9 18.7 10.1" style="enable-background:new -296 391.9 18.7 10.1;" xml:space="preserve">
<style type="text/css">
	.st0{fill:#FFFFFF;}
</style>
<g id="Arrow-down_1_" transform="translate(-298.181 -153.987)">
	<g id="Path_220_1_">
		<path class="st0" d="M11.5,545.9c-0.2,0-0.4,0.1-0.5,0.2l-8.6,8.6c-0.3,0.3-0.3,0.8,0,1.1s0.8,0.3,1.1,0l8.1-8.1l8.1,8.1
			c0.3,0.3,0.8,0.3,1.1,0s0.3-0.8,0-1.1l-8.6-8.6C11.9,546,11.7,545.9,11.5,545.9z"/>
	</g>
</g>
</svg>
