<svg xmlns="http://www.w3.org/2000/svg" viewBox="0 0 25.736 9.563">
  <defs>
    <style>
      .cls-1 {
        fill: none;
        stroke: #000;
      }
    </style>
  </defs>
  <g id="Group_967" data-name="Group 967" transform="translate(-1143.194 -998.682)">
    <line id="Line_30" data-name="Line 30" class="cls-1" x2="25.306" transform="translate(1143.194 1003.5)"/>
    <path id="Path_61" data-name="Path 61" class="cls-1" d="M3.9,0,0,4.452,3.9,8.9" transform="translate(1168.265 1007.915) rotate(180)"/>
  </g>
</svg>
