<?xml version="1.0" encoding="utf-8"?>
<!-- Generator: Adobe Illustrator 19.0.0, SVG Export Plug-In . SVG Version: 6.00 Build 0)  -->
<svg version="1.1" id="Layer_1" xmlns="http://www.w3.org/2000/svg" xmlns:xlink="http://www.w3.org/1999/xlink" x="0px" y="0px"
	 viewBox="-298 380.2 13.7 32.8" style="enable-background:new -298 380.2 13.7 32.8;" xml:space="preserve">
<style type="text/css">
	.st0{fill:none;stroke:#4E463F;stroke-width:2;}
</style>
<path id="Path_62" class="st0" d="M-297.2,412.4l11.7-15.8l-11.7-15.8"/>
</svg>
