<svg xmlns="http://www.w3.org/2000/svg" viewBox="0 0 36.015 36.916">
  <defs>
    <style>
      .cls-1 {
        fill: #fff;
      }

      .cls-2 {
        fill: #b09964;
      }
    </style>
  </defs>
  <g id="Group_901" data-name="Group 901" transform="translate(5492.917 -2601)">
    <rect id="Rectangle_64" data-name="Rectangle 64" class="cls-1" width="36.015" height="36.916" transform="translate(-5492.917 2601)"/>
    <g id="Group_140" data-name="Group 140" transform="translate(-5484.813 2609.103)">
      <g id="Group_132" data-name="Group 132">
        <g id="Group_131" data-name="Group 131">
          <path id="Path_66" data-name="Path 66" class="cls-2" d="M14.947,0H5.532A5.541,5.541,0,0,0,0,5.532v9.411a5.542,5.542,0,0,0,5.532,5.536h9.411a5.538,5.538,0,0,0,5.532-5.532V5.532A5.535,5.535,0,0,0,14.947,0Zm3.876,14.947a3.883,3.883,0,0,1-3.88,3.88H5.532a3.883,3.883,0,0,1-3.88-3.88V5.532a3.883,3.883,0,0,1,3.88-3.88h9.411a3.883,3.883,0,0,1,3.88,3.88Z"/>
        </g>
      </g>
      <g id="Group_134" data-name="Group 134" transform="translate(5.365 5.605)">
        <g id="Group_133" data-name="Group 133" transform="translate(0 0)">
          <path id="Path_67" data-name="Path 67" class="cls-2" d="M151.274,144.044a4.533,4.533,0,0,0-1.3-2.572,4.583,4.583,0,0,0-2.572-1.3,4.481,4.481,0,0,0-1.348,0,4.592,4.592,0,0,0,.664,9.135,4.378,4.378,0,0,0,.684-.052,4.59,4.59,0,0,0,3.868-5.216Zm-4.112,3.58a2.937,2.937,0,0,1-.86-5.811,2.931,2.931,0,0,1,.864,0,2.937,2.937,0,0,1,0,5.811Z" transform="translate(-142.136 -140.125)"/>
        </g>
      </g>
      <g id="Group_136" data-name="Group 136" transform="translate(14.267 4.235)">
        <g id="Group_135" data-name="Group 135" transform="translate(0 0)">
          <path id="Path_68" data-name="Path 68" class="cls-2" d="M366.112,106.144a.821.821,0,1,0,.244.584A.816.816,0,0,0,366.112,106.144Z" transform="translate(-364.7 -105.9)"/>
        </g>
      </g>
    </g>
  </g>
</svg>
