<svg xmlns="http://www.w3.org/2000/svg" xmlns:xlink="http://www.w3.org/1999/xlink" viewBox="0 0 15 15">
  <defs>
    <style>
      .cls-1, .cls-3, .cls-4 {
        fill: none;
      }

      .cls-1 {
        stroke: #fff;
      }

      .cls-2 {
        stroke: none;
      }

      .cls-4 {
        clip-path: url(#clip);
      }
    </style>
    <clipPath id="clip">
      <use xlink:href="#fill"/>
    </clipPath>
  </defs>
  <g id="Group_882" data-name="Group 882" transform="translate(-1146.063 -67)">
    <g id="Ellipse_112" data-name="Ellipse 112" class="cls-1" transform="translate(1146.063 67)">
      <circle class="cls-2" cx="7.5" cy="7.5" r="7.5"/>
      <circle class="cls-3" cx="7.5" cy="7.5" r="7"/>
    </g>
    <line id="Line_187" data-name="Line 187" class="cls-1" y2="5.625" transform="translate(1153.094 70.281)"/>
    <line id="Line_188" data-name="Line 188" class="cls-1" x2="2.813" transform="translate(1153.094 75.906)"/>
    <g id="Rectangle_229" data-name="Rectangle 229" class="cls-1" transform="translate(1152.625 75.438)">
      <rect id="fill" class="cls-2" width="0.938" height="0.938"/>
      <path class="cls-4" d="M0,0.4375h0.9375M0.5,0v0.9375M0.9375,0.5h-0.9375M0.4375,0.9375v-0.9375"/>
    </g>
  </g>
</svg>
