<svg xmlns="http://www.w3.org/2000/svg" viewBox="0 0 250.8 42.722">
  <defs>
    <style>
      .cls-1 {
        fill: #e0d6b6;
      }

      .cls-2 {
        fill: #fff;
      }
    </style>
  </defs>
  <g id="Group_93" data-name="Group 93" transform="translate(-594 -367.053)">
    <g id="Group_7" data-name="Group 7" transform="translate(819.166 367.576)">
      <path id="Path_14" data-name="Path 14" class="cls-1" d="M663.034,19.673c1.437-5.065,3.662-10.267,5.339-15.4,1.609,3.662,2.841,7.666,4.415,11.328-3.251,1.369-6.742,2.5-9.754,4.073m19.714-5.818c-2.4.24-4.62.684-6.982,1.027C673.917,10.4,672,5.949,670.118,1.5h-3.183c-3.183,7.529-6.092,15.3-9.035,23.068,1.027-.205,2.19.274,3.286,0,.821-.205,2.019-1.369,2.875-1.951a50.5,50.5,0,0,1,9.343-5.3c.821,2.5,1.745,4.86,2.669,7.256a27.4,27.4,0,0,0,3.8-.1c-1.3-2.7-2.362-5.613-3.594-8.385,2.054-.821,4.483-1.3,6.469-2.225" transform="translate(-657.9 -1.5)"/>
    </g>
    <g id="Group_8" data-name="Group 8" transform="translate(783.332 367.644)">
      <path id="Path_15" data-name="Path 15" class="cls-1" d="M563.775,12.447a115.167,115.167,0,0,0-6.982-10.712H553.2c1.985,3.08,4.449,6.777,6.674,10.1.719,1.061,1.951,2.362,2.156,3.251a23.841,23.841,0,0,1,0,4.689v4.791h3.08V14.979c2.567-3.867,5.613-7.906,8.214-11.636.376-.548.924-1.266.821-1.643H570.86C568.4,5.191,566,8.785,563.775,12.447" transform="translate(-553.2 -1.7)"/>
    </g>
    <g id="Group_9" data-name="Group 9" transform="translate(747.088 367.576)">
      <path id="Path_16" data-name="Path 16" class="cls-1" d="M452.434,19.776c1.437-5.1,3.662-10.3,5.339-15.5,1.609,3.7,2.841,7.7,4.415,11.431-3.354,1.266-6.674,2.567-9.754,4.073m19.611-5.818c-2.293.308-4.689.582-6.879,1.027-1.848-4.552-3.731-9-5.647-13.485h-3.286c-3.149,7.529-6.024,15.333-8.933,23.068h3.286c3.97-2.5,7.564-5.339,12.218-7.153.856,2.43,1.745,4.791,2.67,7.153a25.927,25.927,0,0,0,3.7-.1c-1.164-2.738-2.4-5.442-3.388-8.385,1.985-.787,4.278-1.3,6.263-2.122" transform="translate(-447.3 -1.5)"/>
    </g>
    <g id="Group_10" data-name="Group 10" transform="translate(707.952 367.576)">
      <path id="Path_17" data-name="Path 17" class="cls-1" d="M344.261,21.111C342.276,14.4,339.812,8.174,337.793,1.5H333.07c-.24,7.5-.034,15.4-.1,23.068h3.08c.068-6.4-.137-13.074.1-19.3,2.122,6.469,4.381,12.869,6.571,19.3H345.6c2.259-6.366,4.415-12.834,6.777-19.1v19.1h2.978V1.5h-4.21c-2.327,6.5-4.552,13.108-6.879,19.611" transform="translate(-332.95 -1.5)"/>
    </g>
    <g id="Group_11" data-name="Group 11" transform="translate(669.569 367.576)">
      <path id="Path_18" data-name="Path 18" class="cls-1" d="M225.831,19.673c1.78-5.168,3.731-10.2,5.442-15.4,1.574,3.7,2.909,7.666,4.312,11.534-3.525.993-6.434,2.635-9.754,3.867m12.834-4.689c-1.814-4.518-3.765-8.9-5.544-13.485h-3.388c-3.08,7.564-5.989,15.367-8.933,23.068h3.286c3.9-2.567,7.564-5.408,12.218-7.256.821,2.43,1.745,4.791,2.567,7.256h3.8c-1.129-2.841-2.362-5.544-3.491-8.385,2.019-.993,4.62-1.4,6.674-2.362a63.067,63.067,0,0,0-7.187,1.164" transform="translate(-220.8 -1.5)"/>
    </g>
    <g id="Group_12" data-name="Group 12" transform="translate(634.967 367.053)">
      <path id="Path_19" data-name="Path 19" class="cls-1" d="M128.633,9.8c-1.848-.513-4.381-1.164-4.826-2.567-1.369-4.347,5.818-5.3,8.727-3.559a4.6,4.6,0,0,1,1.951,3.662c1.061-.1,2.122-.171,3.183-.308C137.189,1.864,133.527-.6,127.2.084c-4.141.445-6.5,2.738-6.674,6.024a5.563,5.563,0,0,0,1.848,4.586c3.08,2.67,8.83,2.156,11.5,3.97a3.361,3.361,0,0,1,1.335,3.183c-.684,3.662-7.632,4.244-10.678,1.848a5.29,5.29,0,0,1-1.745-3.867c-1.027.1-2.088.171-3.08.308a7.994,7.994,0,0,0,1.129,4.278c3.08,5.065,16.291,5,17.455-1.848,1.2-7.05-5-7.529-9.651-8.762" transform="translate(-119.7 0.028)"/>
    </g>
    <g id="Group_13" data-name="Group 13" transform="translate(617.718 367.558)">
      <path id="Path_20" data-name="Path 20" class="cls-2" d="M70.429,5.368c1.232-.137,3.012.274,3.9-.205V4.65a30.486,30.486,0,0,0-4-.1,9.542,9.542,0,0,1,.1-2.259c1.335-.137,3.217.274,4.21-.205V1.57c-1.574-.24-3.594-.034-5.339-.1V8.723h5.442V7.7H70.327a10.042,10.042,0,0,1,.1-2.327" transform="translate(-69.3 -1.45)"/>
    </g>
    <g id="Group_14" data-name="Group 14" transform="translate(605.602 367.576)">
      <path id="Path_21" data-name="Path 21" class="cls-2" d="M38.623,4.478a25.927,25.927,0,0,1-3.7-.1V1.5H33.9V8.756h1.027a22.494,22.494,0,0,1,.1-3.457h3.594V8.756H39.65V1.5H38.623Z" transform="translate(-33.9 -1.5)"/>
    </g>
    <g id="Group_15" data-name="Group 15" transform="translate(594 367.558)">
      <path id="Path_22" data-name="Path 22" class="cls-2" d="M0,1.467v.821H2.464V8.723h.924c.068-2.122-.137-4.483.1-6.434.684-.137,1.917.24,2.259-.205V1.57c-1.711-.24-3.867-.034-5.75-.1" transform="translate(0 -1.45)"/>
    </g>
    <g id="Group_16" data-name="Group 16" transform="translate(814.579 401.664)">
      <path id="Path_23" data-name="Path 23" class="cls-2" d="M648.607,105.262c1.2.171,2.156.719,2.156,1.951a2.077,2.077,0,0,1-1.164,1.848,4.984,4.984,0,0,1-2.4.479h-2.7V109.2c1.061-.068,1.129-.137,1.129-1.164v-4.928c0-1.027-.034-1.1-1.027-1.164V101.6h3.149a2.942,2.942,0,0,1,1.814.411,1.659,1.659,0,0,1,.685,1.4,1.912,1.912,0,0,1-1.643,1.814Zm-1.369-.137c1.335,0,1.917-.548,1.917-1.574a1.48,1.48,0,0,0-1.609-1.574,1.137,1.137,0,0,0-.685.137c-.1.068-.171.205-.171.616v2.4ZM646.656,108c0,.89.24,1.1,1.027,1.1a1.7,1.7,0,0,0,1.882-1.78c0-1.266-.856-1.814-2.327-1.814h-.548V108Z" transform="translate(-644.5 -101.429)"/>
      <path id="Path_24" data-name="Path 24" class="cls-2" d="M673.963,109.211v-.342c.787-.1.89-.205.719-.685s-.411-1.129-.685-1.882h-2.6c-.205.548-.376,1.061-.548,1.574-.274.753-.171.89.753.993v.342H669v-.342c.753-.1.924-.171,1.369-1.266l2.533-6.4.376-.1c.753,2.088,1.574,4.415,2.362,6.537.376,1.061.548,1.164,1.335,1.232v.342Zm-1.164-6.537h0c-.411,1.061-.787,2.122-1.164,3.114h2.259Z" transform="translate(-660.615 -101.1)"/>
      <path id="Path_25" data-name="Path 25" class="cls-2" d="M705.155,107.624c-.068.376-.342,1.54-.445,1.917H699.2V109.2c1.027-.068,1.129-.171,1.129-1.2v-4.894c0-1.027-.068-1.1-1.061-1.164V101.6h3.183v.342c-.958.068-1.061.137-1.061,1.164v4.826c0,.65.068.89.274,1.027a2.6,2.6,0,0,0,1.164.171c.684,0,1.1-.068,1.369-.376a3.49,3.49,0,0,0,.616-1.2Z" transform="translate(-680.479 -101.429)"/>
      <path id="Path_26" data-name="Path 26" class="cls-2" d="M723.4,109.54V109.2c.993-.068,1.1-.137,1.1-1.2v-4.86c0-1.027-.1-1.1-1.1-1.2V101.6h3.217v.342c-.993.068-1.1.137-1.1,1.2V108c0,1.061.1,1.1,1.1,1.2v.342Z" transform="translate(-696.397 -101.429)"/>
    </g>
  </g>
</svg>
