<svg xmlns="http://www.w3.org/2000/svg" viewBox="0 0 45.527 45.41">
  <defs>
    <style>
      .cls-1 {
        fill: #fff;
      }
    </style>
  </defs>
  <path id="Path_182" data-name="Path 182" class="cls-1" d="M13.477-19.238q-2.441,0-4.443,3.833a16.475,16.475,0,0,0-2,7.69,8.848,8.848,0,0,0,.9,4.395,2.627,2.627,0,0,0,2.271,1.563q2.441,0,4.321-3.833a17.42,17.42,0,0,0,1.88-7.739,9.827,9.827,0,0,0-.781-4.395A2.38,2.38,0,0,0,13.477-19.238Zm.586-2a5.375,5.375,0,0,1,4.468,2,8.66,8.66,0,0,1,1.587,5.518,15.042,15.042,0,0,1-3.54,9.5Q13.037.244,9.326.244a5.407,5.407,0,0,1-4.468-1.9A8.429,8.429,0,0,1,3.32-7.08,15.462,15.462,0,0,1,6.836-16.7Q10.352-21.24,14.063-21.24ZM44.844-34.131q3.125,0,4,1.66,0,3.174-1.758,3.174a1.711,1.711,0,0,1-1.294-.732q-.61-.732-1.27-1.489a1.9,1.9,0,0,0-1.44-.757q-1.563,0-3.32,3.2a29.056,29.056,0,0,0-2.734,8.911v.1q0,.2.146.2h5.615q.244,0,.244.586a3.208,3.208,0,0,1-.537,1.66H36.787q-.244,0-.293.391l-2.686,14.6Q32.637,4.15,29.683,7.715t-6.421,3.564a5.048,5.048,0,0,1-2.686-.61,2.917,2.917,0,0,1-1.27-1.392,3.26,3.26,0,0,1,.537-2A1.722,1.722,0,0,1,21.309,6.4a1.1,1.1,0,0,1,.83.464,5.624,5.624,0,0,1,.684,1.025,3.343,3.343,0,0,0,.854,1.025,1.909,1.909,0,0,0,1.245.464,2.518,2.518,0,0,0,1.855-1.147,10.473,10.473,0,0,0,1.587-2.881q.659-1.733,1.123-3.3a22.323,22.323,0,0,0,.659-2.783l2.93-16.553v-.1q0-.244-.146-.244H29.756q-.1,0-.1-.146a2.327,2.327,0,0,1,.781-1.27A2.2,2.2,0,0,1,32-19.873h1.416q.2,0,.293-.439a20.383,20.383,0,0,1,4.2-9.912Q41.133-34.131,44.844-34.131Z" transform="translate(-3.32 34.131)"/>
</svg>
