<svg xmlns="http://www.w3.org/2000/svg" viewBox="0 0 6 6">
  <defs>
    <style>
      .cls-1 {
        fill: #f8f6ee;
      }
    </style>
  </defs>
  <rect id="Rectangle_411" data-name="Rectangle 411" class="cls-1" width="6" height="6"/>
</svg>
