<svg xmlns="http://www.w3.org/2000/svg" viewBox="0 0 19.577 9.326">
  <defs>
    <style>
      .cls-1 {
        fill: none;
        stroke: #fff;
        stroke-linecap: round;
        stroke-linejoin: round;
        stroke-miterlimit: 10;
        stroke-width: 2px;
      }
    </style>
  </defs>
  <g id="Group_67" data-name="Group 67" transform="translate(1210.145 435.561) rotate(180)">
    <line id="XMLID_21_" class="cls-1" x1="8.385" y2="6.519" transform="translate(1200.356 434.158) rotate(180)"/>
    <line id="XMLID_20_" class="cls-1" x2="8.385" y2="6.519" transform="translate(1208.741 434.158) rotate(180)"/>
  </g>
</svg>
