<?xml version="1.0" encoding="utf-8"?>
<!-- Generator: Adobe Illustrator 19.0.0, SVG Export Plug-In . SVG Version: 6.00 Build 0)  -->
<svg version="1.1" id="Layer_1" xmlns="http://www.w3.org/2000/svg" xmlns:xlink="http://www.w3.org/1999/xlink" x="0px" y="0px"
	 viewBox="-296 388 18 18" style="enable-background:new -296 388 18 18;" xml:space="preserve">
<style type="text/css">
	.st0{fill:none;}
	.st1{fill:#B28A6C;}
</style>
<g id="Group_1048" transform="translate(-269 -5172)">
	<g id="Path_228" transform="translate(269 5172)">
		<path class="st0" d="M-287,388c5,0,9,4,9,9s-4,9-9,9s-9-4-9-9S-292,388-287,388z"/>
		<path class="st1" d="M-287,404c3.9,0,7-3.1,7-7s-3.1-7-7-7s-7,3.1-7,7S-290.9,404-287,404 M-287,406c-5,0-9-4-9-9s4-9,9-9s9,4,9,9
			S-282,406-287,406z"/>
	</g>
	<circle id="Ellipse_223" class="st1" cx="-18" cy="5569" r="5"/>
</g>
</svg>
