<svg xmlns="http://www.w3.org/2000/svg" viewBox="0 0 18.542 15.428">
  <defs>
    <style>
      .cls-1 {
        fill: #89664a;
      }
    </style>
  </defs>
  <path id="Path_70" data-name="Path 70" class="cls-1" d="M69.13,87.2a7.463,7.463,0,0,1-1.279.429A4.026,4.026,0,0,0,68.9,85.951h0a.209.209,0,0,0-.307-.244h0a7.459,7.459,0,0,1-1.952.809.56.56,0,0,1-.122.014.509.509,0,0,1-.343-.131,4.007,4.007,0,0,0-2.644-1,4.368,4.368,0,0,0-1.265.194,3.861,3.861,0,0,0-2.608,2.788,4.285,4.285,0,0,0-.095,1.473.146.146,0,0,1-.036.113.144.144,0,0,1-.108.05h-.014a10.483,10.483,0,0,1-7.2-3.846h0a.21.21,0,0,0-.343.027h0a4,4,0,0,0,.651,4.858,3.743,3.743,0,0,1-.913-.353h0a.21.21,0,0,0-.312.181h0a4.009,4.009,0,0,0,2.332,3.688h-.086a3.734,3.734,0,0,1-.673-.063h0a.212.212,0,0,0-.24.271h0a4,4,0,0,0,3.163,2.725,7.371,7.371,0,0,1-4.131,1.256h-.461a.305.305,0,0,0-.3.23.313.313,0,0,0,.154.348,10.977,10.977,0,0,0,5.514,1.487,11.1,11.1,0,0,0,4.709-1,10.445,10.445,0,0,0,3.448-2.58,11.323,11.323,0,0,0,2.111-3.534,11.135,11.135,0,0,0,.719-3.868v-.059a.691.691,0,0,1,.253-.529,7.9,7.9,0,0,0,1.591-1.744h0a.214.214,0,0,0-.262-.316Z" transform="translate(-50.885 -85.4)"/>
</svg>
