<svg id="Group_900" data-name="Group 900" xmlns="http://www.w3.org/2000/svg" viewBox="0 0 14.081 9.68">
  <defs>
    <style>
      .cls-1 {
        fill: #dcb99e;
      }
    </style>
  </defs>
  <path id="Path_71" data-name="Path 71" class="cls-1" d="M14.481,80.932c-.382-.679-.8-.8-1.639-.852S9.877,80,8.043,80s-3.96.025-4.8.08-1.257.173-1.642.852a8.308,8.308,0,0,0-.6,3.9v.008a8.267,8.267,0,0,0,.6,3.9c.385.679.8.8,1.642.861s2.965.077,4.8.077,3.957-.03,4.8-.077,1.26-.182,1.639-.861a8.231,8.231,0,0,0,.6-3.9v-.008A8.226,8.226,0,0,0,14.481,80.932ZM6.28,87.48V82.2l4.4,2.64Z" transform="translate(-1 -80)"/>
</svg>
