<?xml version="1.0" encoding="utf-8"?>
<!-- Generator: Adobe Illustrator 19.0.0, SVG Export Plug-In . SVG Version: 6.00 Build 0)  -->
<svg version="1.1" id="Layer_1" xmlns="http://www.w3.org/2000/svg" xmlns:xlink="http://www.w3.org/1999/xlink" x="0px" y="0px"
	 viewBox="-295 387.9 20.1 18.1" style="enable-background:new -295 387.9 20.1 18.1;" xml:space="preserve">
<style type="text/css">
	.st0{fill:#FFFFFF;}
</style>
<g>
	<path class="st0" d="M-281.5,388.8c-1,0-2,0.2-2.8,0.6c-0.9-1-2.2-1.6-3.7-1.6c-2.8,0-5,2.2-5,5c0,0.2,0,0.5,0.1,0.7
		c-1.2,0.8-2.1,2.2-2.1,3.8c0,2.2,1.5,4,3.6,4.4v-1c-1.5-0.4-2.6-1.8-2.6-3.4c0-1.2,0.6-2.3,1.6-3l0.5-0.3l-0.1-0.6
		c0-0.2,0-0.4,0-0.6c0-2.2,1.8-4,4-4c1.1,0,2.2,0.5,3,1.3l0.5,0.5l0.7-0.3c0.7-0.4,1.5-0.5,2.4-0.5c3,0,5.5,2.5,5.5,5.5
		c0,2.3-1.5,4.3-3.5,5.1v1.1c2.6-0.9,4.5-3.3,4.5-6.2C-275,391.8-277.9,388.8-281.5,388.8z"/>
	<path class="st0" d="M-289.6,404v-4.4c0-0.3,0.2-0.5,0.5-0.5l0,0c0.3,0,0.5,0.2,0.5,0.5v4.4c0,0.3-0.2,0.5-0.5,0.5l0,0
		C-289.4,404.5-289.6,404.3-289.6,404z"/>
	<path class="st0" d="M-286,405.5v-5.8c0-0.3,0.2-0.5,0.5-0.5l0,0c0.3,0,0.5,0.2,0.5,0.5v5.8c0,0.3-0.2,0.5-0.5,0.5l0,0
		C-285.8,406-286,405.7-286,405.5z"/>
	<path class="st0" d="M-282.3,403v-3.3c0-0.3,0.2-0.5,0.5-0.5l0,0c0.3,0,0.5,0.2,0.5,0.5v3.3c0,0.3-0.2,0.5-0.5,0.5l0,0
		C-282.1,403.5-282.3,403.3-282.3,403z"/>
</g>
</svg>
