<svg id="XMLID_87_" xmlns="http://www.w3.org/2000/svg" viewBox="0 0 21.951 13.92">
  <defs>
    <style>
      .cls-1 {
        fill: #b88760;
      }
    </style>
  </defs>
  <g id="XMLID_96_" transform="translate(0 0)">
    <g id="XMLID_97_">
      <path id="XMLID_98_" class="cls-1" d="M21.464,13.408c-.138-.285-3.382-5.157-3.451-5.251A3.236,3.236,0,0,0,15.252,6.7a2.481,2.481,0,0,0-.483.032h0A1.531,1.531,0,0,0,13.458,6.1,1.472,1.472,0,0,0,11.94,7.492V9.9H10.007v-2.4A1.472,1.472,0,0,0,8.489,6.1a1.539,1.539,0,0,0-1.277.664A2.19,2.19,0,0,0,6.763,6.7a3.394,3.394,0,0,0-2.8,1.424S3.14,9.358,2.554,10.276a.341.341,0,0,0,.138.475.41.41,0,0,0,.518-.127c.483-.759,1.415-2.12,1.415-2.151A2.562,2.562,0,0,1,6.8,7.365,2.413,2.413,0,0,1,9.317,9.675h0v3.353a5.154,5.154,0,0,0-4.279-2.214,5.417,5.417,0,0,0-2.277.506c.173-.285.345-.538.552-.854a.341.341,0,0,0-.138-.475.41.41,0,0,0-.518.127c-.794,1.2-2,3.005-2.174,3.29A4.255,4.255,0,0,0,0,15.369a4.812,4.812,0,0,0,5,4.587,4.762,4.762,0,0,0,5-4.524v-.886H11.94v.886a4.812,4.812,0,0,0,5,4.587,4.812,4.812,0,0,0,5-4.587A3.7,3.7,0,0,0,21.464,13.408ZM9.282,7.808a3.475,3.475,0,0,0-1.277-.886.773.773,0,0,1,1.277.506v.38ZM5,19.355A4.133,4.133,0,0,1,.725,15.432,4.133,4.133,0,0,1,5,11.51a4.133,4.133,0,0,1,4.279,3.923A4.133,4.133,0,0,1,5,19.355Zm5-6.8V10.561H11.94v1.993Zm1.967,1.3H10.007v-.633H11.94v.633ZM12.7,7.46a.773.773,0,0,1,1.277-.506A3.212,3.212,0,0,0,12.7,7.84Zm0,2.246h0A2.414,2.414,0,0,1,15.218,7.4,2.606,2.606,0,0,1,17.392,8.5c.035.063.966,1.487,1.863,2.847a5.417,5.417,0,0,0-2.277-.506A5.154,5.154,0,0,0,12.7,13.06V9.706Zm4.279,9.649A4.133,4.133,0,0,1,12.7,15.432a4.133,4.133,0,0,1,4.279-3.923,4.133,4.133,0,0,1,4.279,3.923A4.133,4.133,0,0,1,16.978,19.355Z" transform="translate(0 -6.1)"/>
    </g>
  </g>
  <g id="XMLID_93_" transform="translate(13.561 6.2)">
    <g id="XMLID_94_">
      <path id="XMLID_95_" class="cls-1" d="M45.925,27.756a.367.367,0,0,0-.483-.19.319.319,0,0,0-.207.443,2.2,2.2,0,0,1,.173.823,2.7,2.7,0,1,1-2.692-2.468,2.781,2.781,0,0,1,1.967.791.4.4,0,0,0,.518.032.325.325,0,0,0,.035-.475A3.626,3.626,0,0,0,42.716,25.7,3.29,3.29,0,0,0,39.3,28.832a3.429,3.429,0,0,0,6.832,0A2.852,2.852,0,0,0,45.925,27.756Z" transform="translate(-39.3 -25.7)"/>
    </g>
  </g>
  <g id="XMLID_88_" transform="translate(1.587 6.2)">
    <g id="XMLID_89_">
      <path id="XMLID_90_" class="cls-1" d="M8.016,25.7A3.29,3.29,0,0,0,4.6,28.832a3.313,3.313,0,0,0,3.416,3.132,3.313,3.313,0,0,0,3.416-3.132A3.29,3.29,0,0,0,8.016,25.7Zm0,5.6a2.477,2.477,0,1,1,0-4.935,2.477,2.477,0,1,1,0,4.935Z" transform="translate(-4.6 -25.7)"/>
    </g>
  </g>
</svg>
