<?xml version="1.0" encoding="utf-8"?>
<!-- Generator: Adobe Illustrator 19.0.0, SVG Export Plug-In . SVG Version: 6.00 Build 0)  -->
<svg version="1.1" id="Layer_1" xmlns="http://www.w3.org/2000/svg" xmlns:xlink="http://www.w3.org/1999/xlink" x="0px" y="0px"
	 viewBox="-291 377 29 40" style="enable-background:new -291 377 29 40;" xml:space="preserve">
<style type="text/css">
	.st0{fill:none;stroke:#575757;}
	.st1{fill:#575757;}
	.st2{fill:#FFFFFF;}
</style>
<g id="Group_1019" transform="translate(-40 -715)">
	<g id="Group_821" transform="translate(-609 386)">
		<line id="Line_542" class="st0" x1="372.5" y1="729.5" x2="372.5" y2="742.5"/>
		<circle id="Ellipse_182" class="st1" cx="372.5" cy="743.5" r="2.5"/>
		<circle id="Ellipse_181" class="st1" cx="372.5" cy="720.5" r="14.5"/>
	</g>
	<g id="XMLID_78_" transform="translate(46.004 721.979)">
		<g id="XMLID_79_" transform="translate(0)">
			<path id="XMLID_84_" class="st2" d="M-288.8,392.5h4.8c0.2,0,0.3-0.1,0.3-0.3c0-0.2-0.1-0.3-0.3-0.3h-4.8c-0.9,0-1.5-0.7-1.5-1.5
				v-10h2.1v1.3c0,0.2,0.1,0.3,0.3,0.3c0.2,0,0.3-0.1,0.3-0.3v-1.3h4.2v1.3c0,0.2,0.1,0.3,0.3,0.3c0.2,0,0.3-0.1,0.3-0.3v-1.3h2.1
				v0.7c0,0.2,0.1,0.3,0.3,0.3c0.2,0,0.3-0.1,0.3-0.3v-1c0-0.2-0.1-0.3-0.3-0.3h-2.5c0-1.5-1.3-2.7-2.7-2.7c-1.5,0-2.7,1.2-2.8,2.7
				h-2.5c-0.2,0-0.3,0.1-0.3,0.3v10.3C-291,391.5-290,392.4-288.8,392.5z M-285.5,377.6c1.1,0,2.1,0.9,2.1,2h-4.2
				C-287.5,378.5-286.6,377.6-285.5,377.6z"/>
			<path id="XMLID_80_" class="st2" d="M-280.7,383.9v0.4h-1.9c-0.2,0-0.3,0.1-0.3,0.3v6.3c0,0.8,0.7,1.5,1.5,1.5c0,0,0,0,0,0h6
				c0.8,0,1.5-0.7,1.5-1.5c0,0,0,0,0,0v-6.3c0-0.2-0.1-0.3-0.3-0.3h-1.9v-0.4c0-1.2-1-2.2-2.2-2.2
				C-279.7,381.7-280.7,382.7-280.7,383.9L-280.7,383.9z M-274.6,385v6c0,0.5-0.4,0.9-0.8,0.9c0,0,0,0,0,0h-6
				c-0.5,0-0.9-0.4-0.9-0.8c0,0,0,0,0,0v-6h1.6v0.9c0,0.2,0.1,0.3,0.3,0.3c0.2,0,0.3-0.1,0.3-0.3V385h3.2v0.9c0,0.2,0.1,0.3,0.3,0.3
				c0.2,0,0.3-0.1,0.3-0.3c0,0,0,0,0,0V385H-274.6z M-278.4,382.3c0.9,0,1.6,0.7,1.6,1.6v0.4h-3.2v-0.4
				C-280,383-279.3,382.3-278.4,382.3L-278.4,382.3z"/>
		</g>
	</g>
</g>
</svg>
