<svg xmlns="http://www.w3.org/2000/svg" viewBox="0 0 29 40">
  <defs>
    <style>
      .cls-1 {
        fill: none;
        stroke: #b88760;
      }

      .cls-2 {
        fill: #b88760;
      }

      .cls-3 {
        fill: #fff;
      }
    </style>
  </defs>
  <g id="shop-hover" transform="translate(-9322 -9012)">
    <line id="Line_542" data-name="Line 542" class="cls-1" y2="13" transform="translate(9336.5 9035.5)"/>
    <circle id="Ellipse_182" data-name="Ellipse 182" class="cls-2" cx="2.5" cy="2.5" r="2.5" transform="translate(9334 9047)"/>
    <circle id="Ellipse_181" data-name="Ellipse 181" class="cls-2" cx="14.5" cy="14.5" r="14.5" transform="translate(9322 9012)"/>
    <g id="XMLID_78_" transform="translate(9328.004 9018.979)">
      <g id="XMLID_79_" transform="translate(0)">
        <path id="XMLID_84_" class="cls-3" d="M284.213,15.457h4.8a.317.317,0,0,0,.316-.316.34.34,0,0,0-.316-.316h-4.8a1.551,1.551,0,0,1-1.549-1.549V3.287h2.149V4.615a.316.316,0,0,0,.632,0V3.287h4.2V4.615a.317.317,0,0,0,.316.316.34.34,0,0,0,.316-.316V3.287h2.149v.7a.317.317,0,0,0,.316.316.34.34,0,0,0,.316-.316V2.971a.317.317,0,0,0-.316-.316h-2.466A2.733,2.733,0,0,0,287.532,0a2.776,2.776,0,0,0-2.75,2.655h-2.465a.317.317,0,0,0-.316.316v10.3A2.234,2.234,0,0,0,284.213,15.457ZM287.532.632a2.143,2.143,0,0,1,2.118,2.023h-4.2A2.114,2.114,0,0,1,287.532.632Z" transform="translate(-282)"/>
        <path id="XMLID_80_" class="cls-3" d="M309.844,17.044v.411h-1.928a.317.317,0,0,0-.316.316v6.322a1.484,1.484,0,0,0,1.486,1.486h6.006a1.484,1.484,0,0,0,1.486-1.486V17.771a.317.317,0,0,0-.316-.316h-1.928v-.411a2.244,2.244,0,0,0-4.488,0Zm6.1,1.043v6.006a.85.85,0,0,1-.853.853h-6.006a.85.85,0,0,1-.853-.853V18.087h1.612v.885a.316.316,0,0,0,.632,0v-.885H313.7v.885a.316.316,0,1,0,.632,0v-.885Zm-3.856-2.655a1.619,1.619,0,0,1,1.612,1.612v.411h-3.224v-.411A1.619,1.619,0,0,1,312.089,15.432Z" transform="translate(-299.508 -10.122)"/>
      </g>
    </g>
  </g>
</svg>
