<svg xmlns="http://www.w3.org/2000/svg" viewBox="0 0 29 40">
  <defs>
    <style>
      .cls-1 {
        fill: none;
        stroke: #b88760;
      }

      .cls-2 {
        fill: #b88760;
      }

      .cls-3 {
        fill: #fff;
      }
    </style>
  </defs>
  <g id="misc-hover" transform="translate(-9322 -8956)">
    <line id="Line_542" data-name="Line 542" class="cls-1" y2="13" transform="translate(9336.5 8979.5)"/>
    <circle id="Ellipse_182" data-name="Ellipse 182" class="cls-2" cx="2.5" cy="2.5" r="2.5" transform="translate(9334 8991)"/>
    <circle id="Ellipse_181" data-name="Ellipse 181" class="cls-2" cx="14.5" cy="14.5" r="14.5" transform="translate(9322 8956)"/>
    <g id="XMLID_52_" transform="translate(9330.376 8962.904)">
      <path id="XMLID_75_" class="cls-3" d="M213.487,20.2h-3.165a.312.312,0,0,0-.323.3v8.111h3.81V20.5A.334.334,0,0,0,213.487,20.2Zm-.323,2.427v5.98h-2.551V20.792h2.551Z" transform="translate(-207.126 -14.228)"/>
      <path id="XMLID_67_" class="cls-3" d="M212.692,3.925l-5.1-3.7a1.042,1.042,0,0,0-1.227,0l-1.937,1.391-1.97,1.421-1.227.888a.356.356,0,0,0-.129.237V5.7a.306.306,0,0,0,.161.266.319.319,0,0,0,.323-.03l.161-.118v8.5h0v.562h9.72a3.63,3.63,0,0,0,.614-.03v-.562h0V5.79l.161.118h0a.488.488,0,0,0,.194.059.208.208,0,0,0,.129-.03.306.306,0,0,0,.161-.266V4.132C212.789,4.044,212.757,3.984,212.692,3.925ZM211.5,14.286h-9.074V5.346l4.553-3.286L211.5,5.346Zm.678-9.207-5.005-3.612a.347.347,0,0,0-.387,0L201.778,5.08v-.8L206.783.669a.417.417,0,0,1,.452,0L212.24,4.28v.8Z" transform="translate(-201.1 -0.025)"/>
    </g>
  </g>
</svg>
